de\david\inez\services\test\SimilarityServiceTest.class
de\david\inez\services\test\ComplexSimilarityServiceTest.class
de\david\inez\services\test\SuggestionServiceTest.class
de\david\inez\services\test\NumerServiceTest.class
